sorting: Error 
328 388 6 80 865 413 61 894 576 147 63 223 663 113 453 508 172 712 214 197 208 332 950 787 204 748 543 961 178 871 349 185 183 446 598 244 572 406 392 635 629 287 980 723 972 721 127 684 935 556 892 267 506 286 711 166 62 672 344 165 253 761 931 359 825 504 765 217 371 626 352 582 476 73 941 240 498 517 507 236 702 947 100 320 851 677 485 336 438 834 268 30 660 772 109 143 654 846 727 468 

sorting: Error 
322 800 409 947 40 907 696 780 144 398 38 323 731 358 407 408 843 743 846 910 11 108 570 783 136 679 159 790 525 886 258 919 899 259 191 807 955 203 183 585 241 738 316 831 145 956 675 889 35 900 143 387 916 279 298 307 301 425 559 344 459 627 536 498 582 739 913 399 213 651 948 797 904 719 686 939 818 923 966 594 454 273 896 510 699 687 878 378 505 811 876 319 21 718 996 673 666 272 470 803 

